{
    "content": "//EURRC000 JOB CLASS=A,MSGCLASS=X       \n//*                                     \n//*        JOB AUS SBI.EUROPE.JOBLIB    \n//*                                     \n//*                                     \n//STEP1    EXEC PGM=IDCAMS              \n//SYSPRINT DD  SYSOUT=*                 \n//SYSIN    DD  *                        \nSET MAXCC=0                            \n//STEP2    EXEC PGM=IDCAMS              \n//SYSPRINT DD  SYSOUT=*                 \n//SYSIN    DD  *                        \nSET MAXCC=0                            \n//STEP3    EXEC PGM=IDCAMS        \n//SYSPRINT DD  SYSOUT=*           \n//SYSIN    DD  *                  \nSET MAXCC=8                      \n//STEP4    EXEC PGM=IDCAMS        \n//SYSPRINT DD  SYSOUT=*           \n//SYSIN    DD  *                  \nSET MAXCC=0                      \n//STEP5    EXEC PGM=IDCAMS        \n//SYSPRINT DD  SYSOUT=*           \n//SYSIN    DD  *                  \nSET MAXCC=0 ",
    "description": "JCL Sample - ${_date}",
    "exportReleaseLevel": "7.4.0.0",
    "exportTable": "ops_script",
    "notes": [],
    "opswiseGroups": [
        "BS-Script",
        "Karthik Mohan"
    ],
    "resolveVariables": true,
    "retainSysIds": true,
    "scriptName": "KM-JCL-5.jcl",
    "scriptType": "Data",
    "sysId": "698662dbdbb54152b1d1b4c8c8e42510",
    "version": 1
}