{
    "content": "//EURIFINC JOB (OPSWISE),'CHRISTIAN',          \n//             MSGCLASS=X,                     \n//             CLASS=A                         \n//*                                            \n//STEP1 EXEC PGM=IEFBR14                       \n//IF001  IF (CHRISTIA=CHRISTIA) THEN           \n//CBR1  EXEC PGM=IEFBR14                       \n//       ENDIF                                 \n//IF002  IF (CHRISTIA EQ BRUNS) THEN           \n//CBR2  EXEC PGM=IEFBR14                       \n//       ENDIF ",
    "description": "JCL Sample - ${_date}",
    "exportReleaseLevel": "7.4.0.0",
    "exportTable": "ops_script",
    "notes": [],
    "opswiseGroups": [
        "BS-Script",
        "Karthik Mohan"
    ],
    "resolveVariables": true,
    "scriptName": "KM-JCL-1.jcl",
    "scriptType": "Data",
    "sysId": "05598bdfea5c4ef8a2673de270f2ae6f",
    "version": 7
}